../Core/Src/stm32f4xx_it.c:71:6:NMI_Handler	0	static
../Core/Src/stm32f4xx_it.c:86:6:HardFault_Handler	0	static
../Core/Src/stm32f4xx_it.c:101:6:MemManage_Handler	0	static
../Core/Src/stm32f4xx_it.c:116:6:BusFault_Handler	0	static
../Core/Src/stm32f4xx_it.c:131:6:UsageFault_Handler	0	static
../Core/Src/stm32f4xx_it.c:146:6:DebugMon_Handler	0	static
../Core/Src/stm32f4xx_it.c:166:6:EXTI0_IRQHandler	0	static
../Core/Src/stm32f4xx_it.c:180:6:TIM1_UP_TIM10_IRQHandler	0	static
../Core/Src/stm32f4xx_it.c:194:6:USART1_IRQHandler	0	static
