../u8g2_csrc/u8x8_d_st7567.c:624:16:u8x8_d_st7567_enh_dg128064_generic	24	static
../u8g2_csrc/u8x8_d_st7567.c:156:9:u8x8_d_st7567_pi_132x64	24	static
../u8g2_csrc/u8x8_d_st7567.c:297:9:u8x8_d_st7567_jlx12864	24	static
../u8g2_csrc/u8x8_d_st7567.c:460:9:u8x8_d_st7567_122x32	24	static
../u8g2_csrc/u8x8_d_st7567.c:688:9:u8x8_d_st7567_enh_dg128064	16	static
../u8g2_csrc/u8x8_d_st7567.c:713:9:u8x8_d_st7567_enh_dg128064i	16	static
../u8g2_csrc/u8x8_d_st7567.c:802:9:u8x8_d_st7567_64x32	24	static
../u8g2_csrc/u8x8_d_st7567.c:940:9:u8x8_d_st7567_hem6432	24	static
../u8g2_csrc/u8x8_d_st7567.c:1085:9:u8x8_d_st7567_os12864	24	static
../u8g2_csrc/u8x8_d_st7567.c:1234:9:u8x8_d_st7567_erc13232	24	static
../u8g2_csrc/u8x8_d_st7567.c:1436:9:u8x8_d_st7567_lw12832	32	static
