../u8g2_csrc/u8x8_d_il3820_296x128.c:240:13:u8x8_d_il3820_first_init	8	static
../u8g2_csrc/u8x8_d_il3820_296x128.c:181:13:u8x8_d_il3820_draw_tile	32	static
../u8g2_csrc/u8x8_d_il3820_296x128.c:373:9:u8x8_d_il3820_296x128	16	static
../u8g2_csrc/u8x8_d_il3820_296x128.c:511:9:u8x8_d_il3820_v2_296x128	16	static
